<?xml version="1.0"?>

<svg version="1.1" xmlns="http://www.w3.org/2000/svg" xmlns:xlink="http://www.w3.org/1999/xlink" width="308.195267" height="1024.000000" viewBox="0 0 308.195267 1024.000000">

  <path d="M81.918732 704.000015C81.918732 653.102234,123.179535 611.841431,174.077316 611.841431C224.975098 611.841431,266.235901 653.102234,266.235901 704.000015C266.235901 754.897797,224.975098 796.158600,174.077316 796.158600C123.179535 796.158600,81.918732 754.897797,81.918732 704.000015" style="stroke:rgb(80.000305%,80.000305%,80.000305%); stroke-width: 2.000000;stroke-linejoin: round;stroke-miterlimit: 10.000000;fill: none;"></path>
  <path d="M81.918732 396.800034C81.918732 345.902252,123.179535 304.641449,174.077316 304.641449C224.975098 304.641449,266.235901 345.902252,266.235901 396.800034C266.235901 447.697815,224.975098 488.958618,174.077316 488.958618C123.179535 488.958618,81.918732 447.697815,81.918732 396.800034" style="stroke:rgb(80.000305%,80.000305%,80.000305%); stroke-width: 2.000000;stroke-linejoin: round;stroke-miterlimit: 10.000000;fill: none;"></path>
</svg>
