<?xml version="1.0"?>

<svg version="1.1" xmlns="http://www.w3.org/2000/svg" xmlns:xlink="http://www.w3.org/1999/xlink" width="431.078079" height="1024.000000" viewBox="0 0 431.078079 1024.000000">

  <path d="M81.918732 204.800049C150.111908 177.251434,228.217148 203.287842,266.240601 266.243790C310.411942 339.378876,282.698715 428.252747,266.240601 512.000031C246.307465 613.429977,246.307465 717.770065,266.240601 819.200012" style="stroke:rgb(80.000305%,80.000305%,80.000305%); stroke-width: 2.000000;stroke-linejoin: round;stroke-miterlimit: 10.000000;fill: none;"></path>
  <path d="M266.240601 819.200012C338.079697 835.364929,389.118713 899.164673,389.118713 972.800003C389.118713 1052.582077,340.422592 1126.399994,266.240601 1126.399994C192.058609 1126.399994,143.362488 1052.582077,143.362488 972.800003C143.362488 899.164673,194.401505 835.364929,266.240601 819.200012" style="stroke:rgb(80.000305%,80.000305%,80.000305%); stroke-width: 2.000000;stroke-linejoin: round;stroke-miterlimit: 10.000000;fill: none;"></path>
</svg>
