{
    "letters": [
        "അ",
        "ആ",
        "ഇ",
        "ഈ",
        "ഉ",
        "ഊ",
        "ഋ",
        "എ",
        "ഏ",
        "ഐ",
        "ഒ",
        "ഓ",
        "ഔ",
        "ക",
        "ഖ",
        "ഗ",
        "ഘ",
        "ങ",
        "ച",
        "ഛ",
        "ജ",
        "ഝ",
        "ഞ",
        "ട",
        "ഠ",
        "ഡ",
        "ഢ",
        "ണ",
        "ൺ",
        "ത",
        "ഥ",
        "ദ",
        "ധ",
        "ന",
        "ൻ",
        "പ",
        "ഫ",
        "ബ",
        "ഭ",
        "മ",
        "യ",
        "ര",
        "ർ",
        "ല",
        "ൽ",
        "വ",
        "ശ",
        "ഷ",
        "സ",
        "ഹ",
        "ള",
        "ൾ",
        "ഴ",
        "ൖ",
        "റ",
        "ാ",
        "ി",
        "ീ",
        "ു",
        "ൂ",
        "ൃ",
        "െ",
        "േ",
        "ൗ",
        "ം",
        "ഃ"
    ],
    "conjuncts": [
        "കു",
        "കൂ",
        "ക്ക",
        "ക്ത",
        "ക്ത്ര",
        "ക്ര",
        "ക്ഷ",
        "ഗ്ഗ",
        "ഗ്ദ",
        "ഗ്ദ്ധ",
        "ഗ്ദ്ധ്ര",
        "ഗ്ന",
        "ഗ്മ",
        "ഗ്ര",
        "ഘ്ര",
        "ങ്ക",
        "ങ്ങ",
        "ച്ച",
        "ച്ഛ",
        "ജ്ജ",
        "ജ്ഞ",
        "ജ്ര",
        "ഞ്ച",
        "ഞ്ജ",
        "ഞ്ഞ",
        "ട്ട",
        "ട്ര",
        "ഡ്ഡ",
        "ഡ്ഢ",
        "ഡ്ര",
        "ണ്ട",
        "ണ്ട്ര",
        "ണ്ഠ",
        "ണ്ഡ",
        "ണ്ണ",
        "ണ്മ",
        "ത്ത",
        "ത്ത്ര",
        "ത്ഥ",
        "ത്ന",
        "ത്ഭ",
        "ത്മ",
        "ത്ര",
        "ത്സ",
        "ദ്ദ",
        "ദ്ധ",
        "ദ്ധ്ര",
        "ദ്ര",
        "ധ്ര",
        "ന്ത",
        "ന്ത്ര",
        "ന്ഥ",
        "ന്ദ",
        "ന്ദ്ര",
        "ന്ധ",
        "ന്ധ്ര",
        "ന്ന",
        "ന്മ",
        "ന്റ",
        "ൻ്റ",
        "പ്ന",
        "പ്പ",
        "പ്ഫ",
        "പ്ര",
        "ഫ്ര",
        "ബ്ദ",
        "ബ്ബ",
        "ബ്ര",
        "ഭ്ര",
        "മ്പ",
        "മ്പ്ര",
        "മ്മ",
        "മ്ര",
        "യ്യ",
        "ല്പ",
        "ല്ല",
        "വ്ര",
        "വ്വ",
        "ശ്ച",
        "ശ്ന",
        "ശ്ര",
        "ശ്ശ",
        "ഷ്ട",
        "ഷ്ട്ര",
        "ഷ്പ",
        "സ്ത",
        "സ്ത്ര",
        "സ്ഥ",
        "സ്ന",
        "സ്ര",
        "സ്സ",
        "സ്റ്റ",
        "ഹ്ന",
        "ഹ്മ",
        "ഹ്ര",
        "ള്ള",
        "റ്റ"
    ],
    "lessons": {
        "അ": {
            "pronunciation": "/speech/അ.mp3",
            "examples": [
                "അമ്മ",
                "അപ്പം"
            ]
        },
        "ആ": {
            "pronunciation": "/speech/ആ.mp3",
            "examples": [
                "ആന",
                "ആമ"
            ]
        },
        "ഇ": {
            "pronunciation": "/speech/ഇ.mp3",
            "examples": [
                "ഇല",
                "ഇവിടെ"
            ]
        },
        "ഈ": {
            "examples": [
                "ഈച്ച",
                "ഈത്തപ്പഴം"
            ]
        },
        "ഉ": {
            "pronunciation": "/speech/ഉ.mp3",
            "examples": [
                "ഉമ്മ",
                "ഉറക്കം"
            ]
        },
        "ഊ": {
            "examples": [
                "ഊഞ്ഞാൽ",
                "ഊൺ"
            ]
        },
        "ഋ": {
            "pronunciation": "/speech/ഋ.mp3",
            "examples": [
                "ഋഷി"
            ]
        },
        "എ": {
            "pronunciation": "/speech/എ.mp3",
            "examples": [
                "എലി",
                "എവിടെ"
            ]
        },
        "ഏ": {
            "pronunciation": "/speech/ഏ.mp3",
            "examples": [
                "ഏണി",
                "ഏഴ്"
            ]
        },
        "ഐ": {
            "examples": [
                "ഐക്യം",
                "ഐശ്വര്യം"
            ]
        },
        "ഒ": {
            "pronunciation": "/speech/ഒ.mp3",
            "examples": [
                "ഒപ്പ്",
                "ഒരുമ"
            ]
        },
        "ഓ": {
            "examples": [
                "ഓട്ടം",
                "ഓമന"
            ]
        },
        "ഔ": {
            "examples": [
                "ഔഷദം",
                "ഔദാര്യം"
            ]
        },
        "ക": {
            "pronunciation": "/speech/ക.mp3",
            "examples": [
                "കടൽ",
                "കവിൾ"
            ]
        },
        "കൂ": {
            "examples": [
                "കൂവൽ",
                "കൂട്"
            ]
        },
        "ക്ക": {
            "examples": [
                "ചക്ക",
                "മൂക്ക്"
            ]
        },
        "ഖ": {
            "pronunciation": "/speech/ഖ.mp3",
            "examples": [
                "മുഖം",
                "മേഖല"
            ]
        },
        "ഗ": {
            "pronunciation": "/speech/ഗ.mp3",
            "examples": [
                "ഗാനം",
                "ഗോതമ്പ്"
            ]
        },
        "ഘ": {
            "pronunciation": "/speech/ഘ.mp3",
            "examples": [
                "മേഘം",
                "സംഘടന"
            ]
        },
        "ങ": {
            "pronunciation": "/speech/ങ.mp3",
            "examples": [
                "മാങ്ങ"
            ]
        },
        "ങ്ങ": {
            "examples": [
                "മാങ്ങ"
            ]
        },
        "ങ്ക": {
            "examples": [
                "മങ്ക",
                "ചിലങ്ക"
            ]
        },
        "ച": {
            "pronunciation": "/speech/ച.mp3",
            "examples": [
                "ചട്ടി",
                "ചമ്മന്തി"
            ]
        },
        "ച്ച": {
            "examples": [
                "പൂച്ച",
                "ഈച്ച"
            ]
        },
        "ഛ": {
            "pronunciation": "/speech/ഛ.mp3",
            "examples": [
                "ഛിന്നം",
                "അച്ഛൻ"
            ]
        },
        "ജ": {
            "pronunciation": "/speech/ജ.mp3",
            "examples": [
                "ജനം",
                "ജലം"
            ]
        },
        "ഞ്ജ": {
            "examples": [
                "അഞ്ജലി",
                "മഞ്ജരി"
            ]
        },
        "ജ്ഞ": {
            "examples": [
                "ജ്ഞാനം",
                "അജ്ഞത"
            ]
        },
        "ഝ": {
            "examples": [
                "ഝഷം",
                "ഝടിതി"
            ]
        },
        "ഞ": {
            "pronunciation": "/speech/ഞ.mp3",
            "examples": [
                "ഞങ്ങൾ",
                "ഞാൻ"
            ]
        },
        "ഞ്ച": {
            "examples": [
                "പഞ്ചസാര",
                "വഞ്ചി"
            ]
        },
        "ഞ്ഞ": {
            "pronunciation": "/speech/ഞ്ഞ.mp3",
            "examples": [
                "മഞ്ഞൾ",
                "കുഞ്ഞ്"
            ]
        },
        "ട": {
            "pronunciation": "/speech/ട.mp3",
            "examples": [
                "ടീച്ചർ",
                "വട"
            ]
        },
        "ട്ര": {
            "examples": [
                "ട്രാപ്പ്",
                "ട്രാവൽ"
            ]
        },
        "ട്ട": {
            "pronunciation": "/speech/ട്ട.mp3",
            "examples": [
                "വട്ടി",
                "പട്ടണം"
            ]
        },
        "ഠ": {
            "pronunciation": "/speech/ഠ.mp3",
            "examples": [
                "പാഠം"
            ]
        },
        "ഡ": {
            "pronunciation": "/speech/ഡ.mp3",
            "examples": [
                "ഡപ്പി",
                "ഡിഷ്"
            ]
        },
        "ഢ": {
            "pronunciation": "/speech/ഢ.mp3",
            "examples": [
                "മൂഢൻ"
            ]
        },
        "ണ": {
            "pronunciation": "/speech/ണ.mp3",
            "examples": [
                "പണം",
                "തുണ"
            ]
        },
        "ൺ": {
            "pronunciation": "/speech/ൺ.mp3",
            "examples": [
                "ജൂൺ",
                "കൂൺ"
            ]
        },
        "ണ്ണ": {
            "examples": [
                "വെണ്ണ",
                "കണ്ണാടി"
            ]
        },
        "ണ്ട": {
            "examples": [
                "ചെണ്ട",
                "മണ്ടൻ"
            ]
        },
        "ത": {
            "pronunciation": "/speech/ത.mp3",
            "examples": [
                "തറ",
                "തണുപ്പ്"
            ]
        },
        "ഥ": {
            "pronunciation": "/speech/ഥ.mp3",
            "examples": [
                "രഥം",
                "വീഥി"
            ]
        },
        "ദ": {
            "pronunciation": "/speech/ദ.mp3",
            "examples": [
                "ദയ",
                "ദിവസം"
            ]
        },
        "ധ": {
            "pronunciation": "/speech/ധ.mp3",
            "examples": [
                "ധനം",
                "ധീരത"
            ]
        },
        "ഗ്ദ്ധ": {
            "examples": [
                "വിദഗ്ദ്ധൻ",
                "വൈദഗ്ദ്ധ്യം"
            ]
        },
        "ന": {
            "pronunciation": "/speech/ന.mp3",
            "examples": [
                "നെല്ല്",
                "ആന"
            ]
        },
        "ൻ": {
            "pronunciation": "/speech/ൻ.mp3",
            "examples": [
                "അവൻ",
                "വൻപയർ"
            ]
        },
        "ന്ത": {
            "examples": [
                "സ്വന്തം",
                "സന്തോഷം"
            ]
        },
        "പ": {
            "pronunciation": "/speech/പ.mp3",
            "examples": [
                "പണം",
                "പപ്പടം"
            ]
        },
        "പ്പ": {
            "pronunciation": "/speech/പ്പ.mp3",
            "examples": [
                "പപ്പടം",
                "അപ്പം"
            ]
        },
        "ഫ": {
            "pronunciation": "/speech/ഫ.mp3",
            "examples": [
                "ഫലം",
                "ഫോൺ"
            ]
        },
        "ബ": {
            "pronunciation": "/speech/ബ.mp3",
            "examples": [
                "ബലം",
                "ബസ്സ്"
            ]
        },
        "ഭ": {
            "pronunciation": "/speech/ഭ.mp3",
            "examples": [
                "ഭാരതം",
                "അഭിമാനം"
            ]
        },
        "മ": {
            "pronunciation": "/speech/മ.mp3",
            "examples": [
                "മണം",
                "മലയാളം"
            ]
        },
        "യ": {
            "pronunciation": "/speech/യ.mp3",
            "examples": [
                "സമയം",
                "മയിൽ"
            ]
        },
        "ര": {
            "pronunciation": "/speech/ര.mp3",
            "examples": [
                "രസം",
                "കരി"
            ]
        },
        "ർ": {
            "pronunciation": "/speech/ർ.mp3",
            "examples": [
                "പയർ",
                "കൂർക്ക"
            ]
        },
        "രൂ": {
            "examples": [
                "രൂപ",
                "ആരൂഢം"
            ]
        },
        "ല": {
            "pronunciation": "/speech/ല.mp3",
            "examples": [
                "വല",
                "കലി"
            ]
        },
        "വ": {
            "pronunciation": "/speech/വ.mp3",
            "examples": [
                "വല",
                "പാവ"
            ]
        },
        "വ്വ": {
            "examples": [
                "ഉവ്വ്",
                "ചൊവ്വ"
            ]
        },
        "ശ": {
            "pronunciation": "/speech/ശ.mp3",
            "examples": [
                "ശനി",
                "ശിശു"
            ]
        },
        "ശൂ": {
            "pronunciation": "/speech/ശൂ.mp3",
            "examples": [
                "ശൂന്യം"
            ]
        },
        "ശ്ര": {
            "pronunciation": "/speech/ശ്ര.mp3",
            "examples": [
                "ശ്രമം"
            ]
        },
        "ഷ": {
            "pronunciation": "/speech/ഷ.mp3",
            "examples": [
                "ഭാഷ",
                "വേഷം"
            ]
        },
        "സ": {
            "pronunciation": "/speech/സ.mp3",
            "examples": [
                "സാമ്പാർ",
                "സരസം"
            ]
        },
        "ഹ": {
            "pronunciation": "/speech/ഹ.mp3",
            "examples": [
                "ഹിതം",
                "പലഹാരം"
            ]
        },
        "ള": {
            "pronunciation": "/speech/ള.mp3",
            "examples": [
                "വള",
                "കളഭം"
            ]
        },
        "ൾ": {
            "examples": [
                "മഞ്ഞൾ"
            ]
        },
        "ഴ": {
            "pronunciation": "/speech/ഴ.mp3",
            "examples": [
                "മഴ",
                "വഴി"
            ]
        },
        "ൖ": {
            "examples": [
                "താൖവാരം"
            ]
        },
        "റ": {
            "pronunciation": "/speech/റ.mp3",
            "examples": [
                "കറി",
                "തറ"
            ]
        }
    }
}
